Visualizing Models in R
…
Want a quick summary of model fit?

glance(model1)

## # A tibble: 1 x 7
##   null.deviance df.null logLik   AIC   BIC   deviance df.residual
##           <dbl>   <int>  <dbl> <dbl> <dbl>      <dbl>       <int>
## 1   1065767053.     443 -3446. 6907. 6935. 143547748.         438

Want fitted values and residuals?

augment(model1)

## # A tibble: 444 x 13
##    penalties minority liberal popsize   crt unemp .fitted .se.fit .resid    .hat
##        <dbl>    <dbl>   <dbl>   <dbl> <dbl> <dbl>   <dbl>   <dbl>  <dbl>   <dbl>
##  1     4834.     1334    43.9   15009 19.6  12.5    3962.    73.5  872.  0.0165 
##  2     3059.     1425    44.3   15647 17.5   6.75   3982.    78.5 -923.  0.0188 
##  3     3122.      577    36.9   14855 24.1  18.3    2937.    83.8  185.  0.0214 
##  4     2682.      307    38.7   22763 26.2   3.80   3074.    49.6 -391.  0.00749
##  5     4537.     1132    32.8   13291 33.0   9.54   4045.    73.9  491.  0.0167 
##  6     3413.     1195    44.7   24951  6.29  4.99   3849.    73.7 -436.  0.0166 
##  7     6764.     1324    34.9   26279 45.9  19.9    6361.    62.0  403.  0.0117 
##  8     2810.      773    36.3   21350  6.00  5.92   2773.    57.0   37.2 0.00990
##  9     4946.     1455    48.7   17390 38.6  10.3    5305.    86.5 -359.  0.0228 
## 10     4528.      608    41.4   25377 20.3   7.11   3597.    36.7  932.  0.00412
## #  with 434 more rows, and 3 more variables: .sigma <dbl>, .cooksd <dbl>,
## #   .std.resid <dbl>
…
